// Jest Snapshot v1, https://goo.gl/fbAQLP

exports[`DefaultLayout.vue renders correctly 1`] = `
<div>
  <b-navbar-stub
    tag="nav"
    toggleable="lg"
    type="dark"
    variant="info"
  >
    <b-navbar-brand-stub
      event="click"
      routertag="a"
      tag="div"
      target="_self"
      to="/"
    >
      Transfeera
    </b-navbar-brand-stub>
     
    <b-navbar-toggle-stub
      label="Toggle navigation"
      target="nav-collapse"
    />
     
    <b-collapse-stub
      id="nav-collapse"
      isnav="true"
      tag="div"
    >
      <b-navbar-nav-stub
        tag="ul"
      >
        <b-nav-item-stub
          active="true"
          event="click"
          linkattrs="[object Object]"
          routertag="a"
          target="_self"
          to="/"
        >
          Favorecidos
        </b-nav-item-stub>
      </b-navbar-nav-stub>
    </b-collapse-stub>
  </b-navbar-stub>
   
  <div
    class="DefaultLayout"
  >
    <main
      class="DefaultLayout__main"
    />
     
    <footer
      class="DefaultLayout__footer"
    />
  </div>
</div>
`;
